[{
  "id": 1,
  "fecha": "4/11/2020",
  "importe": 95,
  "latitud": -6.8713485,
  "longitud": 111.639243
}, {
  "id": 2,
  "fecha": "1/17/2020",
  "importe": 67,
  "latitud": 40.4776836,
  "longitud": 45.0525325
}, {
  "id": 3,
  "fecha": "7/6/2019",
  "importe": 39,
  "latitud": 40.417358,
  "longitud": 117.500558
}, {
  "id": 4,
  "fecha": "3/19/2020",
  "importe": 58,
  "latitud": 49.911732,
  "longitud": 20.8725617
}, {
  "id": 5,
  "fecha": "4/17/2020",
  "importe": 90,
  "latitud": 62.1549186,
  "longitud": 117.6331338
}, {
  "id": 6,
  "fecha": "12/19/2019",
  "importe": 94,
  "latitud": -6.1130137,
  "longitud": 106.1610343
}, {
  "id": 7,
  "fecha": "5/2/2020",
  "importe": 82,
  "latitud": 49.9333641,
  "longitud": 16.9699769
}, {
  "id": 8,
  "fecha": "1/30/2020",
  "importe": 94,
  "latitud": -43.2654767,
  "longitud": -65.3586493
}, {
  "id": 9,
  "fecha": "12/1/2019",
  "importe": 18,
  "latitud": 40.8673649,
  "longitud": 20.3621596
}, {
  "id": 10,
  "fecha": "9/12/2019",
  "importe": 45,
  "latitud": -34.4023791,
  "longitud": -70.8674411
}]
